{
  "project_info": {
    "project_number": "343995421646",
    "firebase_url": "https://cloudtasks-50c3b.firebaseio.com",
    "project_id": "cloudtasks-50c3b",
    "storage_bucket": "cloudtasks-50c3b.appspot.com"
  },
  "client": [
    {
      "client_info": {
        "mobilesdk_app_id": "1:343995421646:android:2bdaea45fb1f225c",
        "android_client_info": {
          "package_name": "ru.kolpashikov.cloudtasks"
        }
      },
      "oauth_client": [
        {
          "client_id": "343995421646-4e2g3sj0ocdhqvgqtkh32u3eeeftb21e.apps.googleusercontent.com",
          "client_type": 1,
          "android_info": {
            "package_name": "ru.kolpashikov.cloudtasks",
            "certificate_hash": "d8dc81c741a7eb48924b8a498cb6fcf7578bb74b"
          }
        },
        {
          "client_id": "343995421646-tj1ctstol3bn6ok4fvq45jhhfofahq14.apps.googleusercontent.com",
          "client_type": 3
        }
      ],
      "api_key": [
        {
          "current_key": "AIzaSyBjSb5_42GbZuFPhNcEBqquAjY5NB0On4k"
        }
      ],
      "services": {
        "analytics_service": {
          "status": 1
        },
        "appinvite_service": {
          "status": 2,
          "other_platform_oauth_client": [
            {
              "client_id": "343995421646-tj1ctstol3bn6ok4fvq45jhhfofahq14.apps.googleusercontent.com",
              "client_type": 3
            }
          ]
        },
        "ads_service": {
          "status": 2
        }
      }
    },
    {
      "client_info": {
        "mobilesdk_app_id": "1:343995421646:android:bc0b19923fb38c85",
        "android_client_info": {
          "package_name": "ru.kolpashikov.cloudtask"
        }
      },
      "oauth_client": [
        {
          "client_id": "343995421646-mcdqkgeeu136delge1ampupooc4iasmk.apps.googleusercontent.com",
          "client_type": 1,
          "android_info": {
            "package_name": "ru.kolpashikov.cloudtask",
            "certificate_hash": "d8dc81c741a7eb48924b8a498cb6fcf7578bb74b"
          }
        },
        {
          "client_id": "343995421646-tj1ctstol3bn6ok4fvq45jhhfofahq14.apps.googleusercontent.com",
          "client_type": 3
        }
      ],
      "api_key": [
        {
          "current_key": "AIzaSyBjSb5_42GbZuFPhNcEBqquAjY5NB0On4k"
        }
      ],
      "services": {
        "analytics_service": {
          "status": 1
        },
        "appinvite_service": {
          "status": 2,
          "other_platform_oauth_client": [
            {
              "client_id": "343995421646-tj1ctstol3bn6ok4fvq45jhhfofahq14.apps.googleusercontent.com",
              "client_type": 3
            }
          ]
        },
        "ads_service": {
          "status": 2
        }
      }
    }
  ],
  "configuration_version": "1"
}